[
  {
    "empId": 1,
    "empName": "John Doe",
    "username": "johndoe123",
    "email": "johndoe@example.com",
    "age": 30,
    "phone": "555-1234",
    "gender": "Male",
    "salary": 93553
  },
  {
    "empId": 2,
    "empName": "Jane Smith",
    "username": "janesmith456",
    "email": "janesmith@example.com",
    "age": 25,
    "phone": "555-5678",
    "gender": "Female",
    "salary": 92525
  },
  {
    "empId": 3,
    "empName": "Michael Johnson",
    "username": "michaelj789",
    "email": "michaelj@example.com",
    "age": 35,
    "phone": "555-9012",
    "gender": "Male",
    "salary": 29331
  },
  {
    "empId": 4,
    "empName": "Sarah Davis",
    "username": "sarahd345",
    "email": "sarahd@example.com",
    "age": 28,
    "phone": "555-3456",
    "gender": "Female",
    "salary": 35460
  },
  {
    "empId": 5,
    "empName": "Robert Brown",
    "username": "robertb678",
    "email": "robertb@example.com",
    "age": 40,
    "phone": "555-7890",
    "gender": "Male",
    "salary": 69074
  },
  {
    "empId": 6,
    "empName": "Emily Wilson",
    "username": "emilyw234",
    "email": "emilyw@example.com",
    "age": 33,
    "phone": "555-2345",
    "gender": "Female",
    "salary": 83768
  },
  {
    "empId": 7,
    "empName": "William Martinez",
    "username": "williamm567",
    "email": "williamm@example.com",
    "age": 29,
    "phone": "555-6789",
    "gender": "Male",
    "salary": 19671
  },
  {
    "empId": 8,
    "empName": "Ashley Taylor",
    "username": "ashleyt890",
    "email": "ashleyt@example.com",
    "age": 31,
    "phone": "555-8901",
    "gender": "Female",
    "salary": 56269
  },
  {
    "empId": 9,
    "empName": "Christopher Lee",
    "username": "chrisl234",
    "email": "chrisl@example.com",
    "age": 27,
    "phone": "555-2345",
    "gender": "Male",
    "salary": 71457
  },
  {
    "empId": 10,
    "empName": "Jessica Clark",
    "username": "jessicac567",
    "email": "jessicac@example.com",
    "age": 32,
    "phone": "555-6789",
    "gender": "Female",
    "salary": 58559
  },
  {
    "empId": 11,
    "empName": "Matthew Scott",
    "username": "matthews890",
    "email": "matthews@example.com",
    "age": 34,
    "phone": "555-8901",
    "gender": "Male",
    "salary": 82934
  },
  {
    "empId": 12,
    "empName": "Amanda Walker",
    "username": "amandaw234",
    "email": "amandaw@example.com",
    "age": 26,
    "phone": "555-2345",
    "gender": "Female",
    "salary": 50298
  },
  {
    "empId": 13,
    "empName": "Kevin Lewis",
    "username": "kevinl567",
    "email": "kevinl@example.com",
    "age": 33,
    "phone": "555-6789",
    "gender": "Male",
    "salary": 11163
  },
  {
    "empId": 14,
    "empName": "Stephanie Green",
    "username": "stephanieg890",
    "email": "stephanieg@example.com",
    "age": 29,
    "phone": "555-8901",
    "gender": "Female",
    "salary": 65535
  },
  {
    "empId": 15,
    "empName": "Andrew Baker",
    "username": "andrewb234",
    "email": "andrewb@example.com",
    "age": 31,
    "phone": "555-2345",
    "gender": "Male",
    "salary": 94086
  },
  {
    "empId": 16,
    "empName": "Melissa Perez",
    "username": "melissap567",
    "email": "melissap@example.com",
    "age": 27,
    "phone": "555-6789",
    "gender": "Female",
    "salary": 96175
  },
  {
    "empId": 17,
    "empName": "David Wright",
    "username": "davidw890",
    "email": "davidw@example.com",
    "age": 34,
    "phone": "555-8901",
    "gender": "Male",
    "salary": 42332
  },
  {
    "empId": 18,
    "empName": "Lauren Hill",
    "username": "laurenh234",
    "email": "laurenh@example.com",
    "age": 26,
    "phone": "555-2345",
    "gender": "Female",
    "salary": 44115
  },
  {
    "empId": 19,
    "empName": "Ryan Adams",
    "username": "ryana567",
    "email": "ryana@example.com",
    "age": 33,
    "phone": "555-6789",
    "gender": "Male",
    "salary": 59914
  },
  {
    "empId": 20,
    "empName": "Rachel Garcia",
    "username": "rachelg890",
    "email": "rachelg@example.com",
    "age": 29,
    "phone": "555-8901",
    "gender": "Female",
    "salary": 44270
  },
  {
    "empId": 21,
    "empName": "Jason King",
    "username": "jasonk234",
    "email": "jasonk@example.com",
    "age": 31,
    "phone": "555-2345",
    "gender": "Male",
    "salary": 72019
  },
  {
    "empId": 22,
    "empName": "Heather Cooper",
    "username": "heatherc567",
    "email": "heatherc@example.com",
    "age": 27,
    "phone": "555-6789",
    "gender": "Female",
    "salary": 11116
  },
  {
    "empId": 23,
    "empName": "Daniel Bailey",
    "username": "danielb890",
    "email": "danielb@example.com",
    "age": 34,
    "phone": "555-8901",
    "gender": "Male",
    "salary": 33710
  },
  {
    "empId": 24,
    "empName": "Katherine Ross",
    "username": "katheriner234",
    "email": "katheriner@example.com",
    "age": 26,
    "phone": "555-2345",
    "gender": "Female",
    "salary": 84893
  },
  {
    "empId": 25,
    "empName": "Brandon Rivera",
    "username": "brandonr567",
    "email": "brandonr@example.com",
    "age": 33,
    "phone": "555-6789",
    "gender": "Male",
    "salary": 66623
  },
  {
    "empId": 26,
    "empName": "Christina Bailey",
    "username": "christinab890",
    "email": "christinab@example.com",
    "age": 29,
    "phone": "555-8901",
    "gender": "Female",
    "salary": 62108
  },
  {
    "empId": 27,
    "empName": "Nicholas Long",
    "username": "nicholasl234",
    "email": "nicholasl@example.com",
    "age": 31,
    "phone": "555-2345",
    "gender": "Male",
    "salary": 34113
  },
  {
    "empId": 28,
    "empName": "Samantha Murphy",
    "username": "samantham567",
    "email": "samantham@example.com",
    "age": 27,
    "phone": "555-6789",
    "gender": "Female",
    "salary": 41441
  },
  {
    "empId": 29,
    "empName": "Patrick Wright",
    "username": "patrickw890",
    "email": "patrickw@example.com",
    "age": 34,
    "phone": "555-8901",
    "gender": "Male",
    "salary": 81883
  },
  {
    "empId": 30,
    "empName": "Alexis King",
    "username": "alexisk234",
    "email": "alexisk@example.com",
    "age": 26,
    "phone": "555-2345",
    "gender": "Female",
    "salary": 15778
  },
  {
    "empId": 31,
    "empName": "Benjamin Scott",
    "username": "benjamins567",
    "email": "benjamins@example.com",
    "age": 33,
    "phone": "555-6789",
    "gender": "Male",
    "salary": 47586
  },
  {
    "empId": 32,
    "empName": "Hannah Green",
    "username": "hannahg890",
    "email": "hannahg@example.com",
    "age": 29,
    "phone": "555-8901",
    "gender": "Female",
    "salary": 75541
  },
  {
    "empId": 33,
    "empName": "Ethan Hall",
    "username": "ethanh234",
    "email": "ethanh@example.com",
    "age": 31,
    "phone": "555-2345",
    "gender": "Male",
    "salary": 49773
  },
  {
    "empId": 34,
    "empName": "Victoria Adams",
    "username": "victoriaa567",
    "email": "victoriaa@example.com",
    "age": 27,
    "phone": "555-6789",
    "gender": "Female",
    "salary": 20018
  },
  {
    "empId": 35,
    "empName": "Keith Parker",
    "username": "keithp890",
    "email": "keithp@example.com",
    "age": 34,
    "phone": "555-8901",
    "gender": "Male",
    "salary": 27454
  },
  {
    "empId": 36,
    "empName": "Julia Wright",
    "username": "juliaw234",
    "email": "juliaw@example.com",
    "age": 26,
    "phone": "555-2345",
    "gender": "Female",
    "salary": 11752
  },
  {
    "empId": 37,
    "empName": "Dylan Lopez",
    "username": "dylanl567",
    "email": "dylanl@example.com",
    "age": 33,
    "phone": "555-6789",
    "gender": "Male",
    "salary": 48727
  },
  {
    "empId": 38,
    "empName": "Amy Lopez",
    "username": "amy567",
    "email": "amy@example.com",
    "age": 29,
    "phone": "555-8901",
    "gender": "Female",
    "salary": 87035
  },
  {
    "empId": 39,
    "empName": "Nathan Campbell",
    "username": "nathanc234",
    "email": "nathanc@example.com",
    "age": 31,
    "phone": "555-2345",
    "gender": "Male",
    "salary": 49998
  },
  {
    "empId": 40,
    "empName": "Kaitlyn Campbell",
    "username": "kaitlync567",
    "email": "kaitlync@example.com",
    "age": 27,
    "phone": "555-6789",
    "gender": "Female",
    "salary": 45704
  },
  {
    "empId": 41,
    "empName": "Christian Morris",
    "username": "christianm890",
    "email": "christianm@example.com",
    "age": 34,
    "phone": "555-8901",
    "gender": "Male",
    "salary": 53306
  },
  {
    "empId": 42,
    "empName": "Megan Morris",
    "username": "meganm234",
    "email": "meganm@example.com",
    "age": 26,
    "phone": "555-2345",
    "gender": "Female",
    "salary": 83637
  },
  {
    "empId": 43,
    "empName": "Jordan Hill",
    "username": "jordanh567",
    "email": "jordanh@example.com",
    "age": 33,
    "phone": "555-6789",
    "gender": "Male",
    "salary": 18519
  },
  {
    "empId": 44,
    "empName": "Madison Hill",
    "username": "madisonh890",
    "email": "madisonh@example.com",
    "age": 29,
    "phone": "555-8901",
    "gender": "Female",
    "salary": 97741
  },
  {
    "empId": 45,
    "empName": "Zachary Bell",
    "username": "zacharyb234",
    "email": "zacharyb@example.com",
    "age": 31,
    "phone": "555-2345",
    "gender": "Male",
    "salary": 88344
  },
  {
    "empId": 46,
    "empName": "Taylor Bell",
    "username": "taylorb567",
    "email": "taylorb@example.com",
    "age": 27,
    "phone": "555-6789",
    "gender": "Female",
    "salary": 77459
  },
  {
    "empId": 47,
    "empName": "Gabriel Powell",
    "username": "gabrielp890",
    "email": "gabrielp@example.com",
    "age": 34,
    "phone": "555-8901",
    "gender": "Male",
    "salary": 34307
  },
  {
    "empId": 48,
    "empName": "Olivia Powell",
    "username": "oliviap234",
    "email": "oliviap@example.com",
    "age": 26,
    "phone": "555-2345",
    "gender": "Female",
    "salary": 65524
  },
  {
    "empId": 49,
    "empName": "Isaac Diaz",
    "username": "isaacd567",
    "email": "isaacd@example.com",
    "age": 33,
    "phone": "555-6789",
    "gender": "Male",
    "salary": 90927
  },
  {
    "empId": 50,
    "empName": "Grace Diaz",
    "username": "graced890",
    "email": "graced@example.com",
    "age": 29,
    "phone": "555-8901",
    "gender": "Female",
    "salary": 53413
  },
  {
    "empId": 51,
    "empName": "Cameron Reed",
    "username": "cameronr234",
    "email": "cameronr@example.com",
    "age": 31,
    "phone": "555-2345",
    "gender": "Male",
    "salary": 98525
  },
  {
    "empId": 52,
    "empName": "Vanessa Reed",
    "username": "vanessar567",
    "email": "vanessar@example.com",
    "age": 27,
    "phone": "555-6789",
    "gender": "Female",
    "salary": 93337
  },
  {
    "empId": 53,
    "empName": "Owen Griffin",
    "username": "oweng890",
    "email": "oweng@example.com",
    "age": 34,
    "phone": "555-8901",
    "gender": "Male",
    "salary": 60408
  },
  {
    "empId": 54,
    "empName": "Brianna Griffin",
    "username": "briannag234",
    "email": "briannag@example.com",
    "age": 26,
    "phone": "555-2345",
    "gender": "Female",
    "salary": 80648
  },
  {
    "empId": 55,
    "empName": "Wyatt Foster",
    "username": "wyattf567",
    "email": "wyattf@example.com",
    "age": 33,
    "phone": "555-6789",
    "gender": "Male",
    "salary": 96765
  },
  {
    "empId": 56,
    "empName": "Jasmine Foster",
    "username": "jasminef890",
    "email": "jasminef@example.com",
    "age": 29,
    "phone": "555-8901",
    "gender": "Female",
    "salary": 34789
  },
  {
    "empId": 57,
    "empName": "Tristan Coleman",
    "username": "tristanc234",
    "email": "tristanc@example.com",
    "age": 31,
    "phone": "555-2345",
    "gender": "Male",
    "salary": 63956
  },
  {
    "empId": 58,
    "empName": "Lillian Coleman",
    "username": "lillianc567",
    "email": "lillianc@example.com",
    "age": 27,
    "phone": "555-6789",
    "gender": "Female",
    "salary": 34766
  },
  {
    "empId": 59,
    "empName": "Blake Howard",
    "username": "blakeh890",
    "email": "blakeh@example.com",
    "age": 34,
    "phone": "555-8901",
    "gender": "Male",
    "salary": 71952
  },
  {
    "empId": 60,
    "empName": "Amelia Howard",
    "username": "ameliah234",
    "email": "ameliah@example.com",
    "age": 26,
    "phone": "555-2345",
    "gender": "Female",
    "salary": 42246
  },
  {
    "empId": 61,
    "empName": "Alex Morgan",
    "username": "alexm567",
    "email": "alexm@example.com",
    "age": 33,
    "phone": "555-6789",
    "gender": "Male",
    "salary": 69476
  },
  {
    "empId": 62,
    "empName": "Ruby Morgan",
    "username": "rubym890",
    "email": "rubym@example.com",
    "age": 29,
    "phone": "555-8901",
    "gender": "Female",
    "salary": 16668
  },
  {
    "empId": 63,
    "empName": "Victor Snyder",
    "username": "victors234",
    "email": "victors@example.com",
    "age": 31,
    "phone": "555-2345",
    "gender": "Male",
    "salary": 17893
  },
  {
    "empId": 64,
    "empName": "Kelsey Snyder",
    "username": "kelseys567",
    "email": "kelseys@example.com",
    "age": 27,
    "phone": "555-6789",
    "gender": "Female",
    "salary": 19286
  },
  {
    "empId": 65,
    "empName": "Elijah Johnston",
    "username": "elijahj890",
    "email": "elijahj@example.com",
    "age": 34,
    "phone": "555-8901",
    "gender": "Male",
    "salary": 89206
  },
  {
    "empId": 66,
    "empName": "Audrey Johnston",
    "username": "audreyj234",
    "email": "audreyj@example.com",
    "age": 26,
    "phone": "555-2345",
    "gender": "Female",
    "salary": 60143
  },
  {
    "empId": 67,
    "empName": "Isaiah Porter",
    "username": "isaiahp567",
    "email": "isaiahp@example.com",
    "age": 33,
    "phone": "555-6789",
    "gender": "Male",
    "salary": 65970
  },
  {
    "empId": 68,
    "empName": "Savannah Porter",
    "username": "savannahp890",
    "email": "savannahp@example.com",
    "age": 29,
    "phone": "555-8901",
    "gender": "Female",
    "salary": 73219
  },
  {
    "empId": 69,
    "empName": "Cole Stevenson",
    "username": "coles234",
    "email": "coles@example.com",
    "age": 31,
    "phone": "555-2345",
    "gender": "Male",
    "salary": 30276
  },
  {
    "empId": 70,
    "empName": "Paige Stevenson",
    "username": "paiges567",
    "email": "paiges@example.com",
    "age": 27,
    "phone": "555-6789",
    "gender": "Female",
    "salary": 84211
  },
  {
    "empId": 71,
    "empName": "Maxwell Hudson",
    "username": "maxwellh890",
    "email": "maxwellh@example.com",
    "age": 34,
    "phone": "555-8901",
    "gender": "Male",
    "salary": 84728
  },
  {
    "empId": 72,
    "empName": "Claire Hudson",
    "username": "claireh234",
    "email": "claireh@example.com",
    "age": 26,
    "phone": "555-2345",
    "gender": "Female",
    "salary": 40191
  },
  {
    "empId": 73,
    "empName": "Bryan Phillips",
    "username": "bryanp567",
    "email": "bryanp@example.com",
    "age": 33,
    "phone": "555-6789",
    "gender": "Male",
    "salary": 37965
  },
  {
    "empId": 74,
    "empName": "Evelyn Phillips",
    "username": "evelynp890",
    "email": "evelynp@example.com",
    "age": 29,
    "phone": "555-8901",
    "gender": "Female",
    "salary": 25098
  },
  {
    "empId": 75,
    "empName": "Gavin Simmons",
    "username": "gavins234",
    "email": "gavins@example.com",
    "age": 31,
    "phone": "555-2345",
    "gender": "Male",
    "salary": 31296
  },
  {
    "empId": 76,
    "empName": "Allison Simmons",
    "username": "allisons567",
    "email": "allisons@example.com",
    "age": 27,
    "phone": "555-6789",
    "gender": "Female",
    "salary": 44679
  },
  {
    "empId": 77,
    "empName": "Connor Reed",
    "username": "connorr890",
    "email": "connorr@example.com",
    "age": 34,
    "phone": "555-8901",
    "gender": "Male",
    "salary": 25838
  },
  {
    "empId": 78,
    "empName": "Maya Reed",
    "username": "mayar234",
    "email": "mayar@example.com",
    "age": 26,
    "phone": "555-2345",
    "gender": "Female",
    "salary": 81276
  },
  {
    "empId": 79,
    "empName": "Levi Foster",
    "username": "levif567",
    "email": "levif@example.com",
    "age": 33,
    "phone": "555-6789",
    "gender": "Male",
    "salary": 44597
  },
  {
    "empId": 80,
    "empName": "Sophia Foster",
    "username": "sophiaf890",
    "email": "sophiaf@example.com",
    "age": 29,
    "phone": "555-8901",
    "gender": "Female",
    "salary": 50170
  },
  {
    "empId": 81,
    "empName": "Parker Coleman",
    "username": "parkerc234",
    "email": "parkerc@example.com",
    "age": 31,
    "phone": "555-2345",
    "gender": "Male",
    "salary": 86849
  },
  {
    "empId": 82,
    "empName": "Hailey Coleman",
    "username": "haileyc567",
    "email": "haileyc@example.com",
    "age": 27,
    "phone": "555-6789",
    "gender": "Female",
    "salary": 91674
  },
  {
    "empId": 83,
    "empName": "Josiah Howard",
    "username": "josiahh890",
    "email": "josiahh@example.com",
    "age": 34,
    "phone": "555-8901",
    "gender": "Male",
    "salary": 52585
  },
  {
    "empId": 84,
    "empName": "Maria Howard",
    "username": "mariah234",
    "email": "mariah@example.com",
    "age": 26,
    "phone": "555-2345",
    "gender": "Female",
    "salary": 49287
  },
  {
    "empId": 85,
    "empName": "Leah Morgan",
    "username": "leahm567",
    "email": "leahm@example.com",
    "age": 33,
    "phone": "555-6789",
    "gender": "Male",
    "salary": 57694
  },
  {
    "empId": 86,
    "empName": "Jaxon Morgan",
    "username": "jaxonm890",
    "email": "jaxonm@example.com",
    "age": 29,
    "phone": "555-8901",
    "gender": "Female",
    "salary": 82463
  },
  {
    "empId": 87,
    "empName": "Peyton Snyder",
    "username": "peytons234",
    "email": "peytons@example.com",
    "age": 31,
    "phone": "555-2345",
    "gender": "Male",
    "salary": 30163
  },
  {
    "empId": 88,
    "empName": "Adeline Snyder",
    "username": "adelines567",
    "email": "adelines@example.com",
    "age": 27,
    "phone": "555-6789",
    "gender": "Female",
    "salary": 85836
  },
  {
    "empId": 89,
    "empName": "Emmanuel Johnston",
    "username": "emmanuelj890",
    "email": "emmanuelj@example.com",
    "age": 34,
    "phone": "555-8901",
    "gender": "Male",
    "salary": 80940
  },
  {
    "empId": 90,
    "empName": "Gracie Johnston",
    "username": "graciej234",
    "email": "graciej@example.com",
    "age": 26,
    "phone": "555-2345",
    "gender": "Female",
    "salary": 96792
  },
  {
    "empId": 91,
    "empName": "Peter Porter",
    "username": "peterp567",
    "email": "peterp@example.com",
    "age": 33,
    "phone": "555-6789",
    "gender": "Male",
    "salary": 27082
  },
  {
    "empId": 92,
    "empName": "Angelina Porter",
    "username": "angelinap890",
    "email": "angelinap@example.com",
    "age": 29,
    "phone": "555-8901",
    "gender": "Female",
    "salary": 38815
  },
  {
    "empId": 93,
    "empName": "Finnegan Stevenson",
    "username": "finnegans234",
    "email": "finnegans@example.com",
    "age": 31,
    "phone": "555-2345",
    "gender": "Male",
    "salary": 62222
  },
  {
    "empId": 94,
    "empName": "Alaina Stevenson",
    "username": "alainas567",
    "email": "alainas@example.com",
    "age": 27,
    "phone": "555-6789",
    "gender": "Female",
    "salary": 16785
  },
  {
    "empId": 95,
    "empName": "Miles Hudson",
    "username": "milesh890",
    "email": "milesh@example.com",
    "age": 34,
    "phone": "555-8901",
    "gender": "Male",
    "salary": 28414
  },
  {
    "empId": 96,
    "empName": "Lila Hudson",
    "username": "lilah234",
    "email": "lilah@example.com",
    "age": 26,
    "phone": "555-2345",
    "gender": "Female",
    "salary": 18088
  },
  {
    "empId": 97,
    "empName": "Rhett Phillips",
    "username": "rhettphillips567",
    "email": "rhettphillips@example.com",
    "age": 33,
    "phone": "555-6789",
    "gender": "Male",
    "salary": 16282
  },
  {
    "empId": 98,
    "empName": "Lydia Phillips",
    "username": "lydiap890",
    "email": "lydiap@example.com",
    "age": 29,
    "phone": "555-8901",
    "gender": "Female",
    "salary": 47644
  },
  {
    "empId": 99,
    "empName": "Simon Simmons",
    "username": "simons234",
    "email": "simons@example.com",
    "age": 31,
    "phone": "555-2345",
    "gender": "Male",
    "salary": 97585
  },
  {
    "empId": 100,
    "empName": "Luna Simmons",
    "username": "lunas567",
    "email": "lunas@example.com",
    "age": 27,
    "phone": "555-6789",
    "gender": "Female",
    "salary": 34740
  },
  {
    "empId": 101,
    "empName": "Gideon Reed",
    "username": "gideonr890",
    "email": "gideonr@example.com",
    "age": 34,
    "phone": "555-8901",
    "gender": "Male",
    "salary": 37660
  },
  {
    "empId": 102,
    "empName": "Hazel Reed",
    "username": "hazelr234",
    "email": "hazelr@example.com",
    "age": 26,
    "phone": "555-2345",
    "gender": "Female",
    "salary": 72886
  },
  {
    "empId": 103,
    "empName": "Ezekiel Foster",
    "username": "ezekielf567",
    "email": "ezekielf@example.com",
    "age": 33,
    "phone": "555-6789",
    "gender": "Male",
    "salary": 54556
  },
  {
    "empId": 104,
    "empName": "Delilah Foster",
    "username": "delilahf890",
    "email": "delilahf@example.com",
    "age": 29,
    "phone": "555-8901",
    "gender": "Female",
    "salary": 93932
  },
  {
    "empId": 105,
    "empName": "Theodore Coleman",
    "username": "theodorec234",
    "email": "theodorec@example.com",
    "age": 31,
    "phone": "555-2345",
    "gender": "Male",
    "salary": 61680
  },
  {
    "empId": 106,
    "empName": "Elena Coleman",
    "username": "elenac567",
    "email": "elenac@example.com",
    "age": 27,
    "phone": "555-6789",
    "gender": "Female",
    "salary": 71292
  },
  {
    "empId": 107,
    "empName": "Asher Howard",
    "username": "asherh890",
    "email": "asherh@example.com",
    "age": 34,
    "phone": "555-8901",
    "gender": "Male",
    "salary": 58689
  },
  {
    "empId": 108,
    "empName": "Naomi Howard",
    "username": "naomih234",
    "email": "naomih@example.com",
    "age": 26,
    "phone": "555-2345",
    "gender": "Female",
    "salary": 72881
  },
  {
    "empId": 109,
    "empName": "Zane Morgan",
    "username": "zanem567",
    "email": "zanem@example.com",
    "age": 33,
    "phone": "555-6789",
    "gender": "Male",
    "salary": 71331
  },
  {
    "empId": 110,
    "empName": "Ellie Morgan",
    "username": "elliem890",
    "email": "elliem@example.com",
    "age": 29,
    "phone": "555-8901",
    "gender": "Female",
    "salary": 78795
  },
  {
    "empId": 111,
    "empName": "Elias Snyder",
    "username": "eliass234",
    "email": "eliass@example.com",
    "age": 31,
    "phone": "555-2345",
    "gender": "Male",
    "salary": 23240
  },
  {
    "empId": 112,
    "empName": "Adalyn Snyder",
    "username": "adalyns567",
    "email": "adalyns@example.com",
    "age": 27,
    "phone": "555-6789",
    "gender": "Female",
    "salary": 70914
  },
  {
    "empId": 113,
    "empName": "Israel Johnston",
    "username": "israelj890",
    "email": "israelj@example.com",
    "age": 34,
    "phone": "555-8901",
    "gender": "Male",
    "salary": 82112
  },
  {
    "empId": 114,
    "empName": "Athena Johnston",
    "username": "athenaj234",
    "email": "athenaj@example.com",
    "age": 26,
    "phone": "555-2345",
    "gender": "Female",
    "salary": 34151
  },
  {
    "empId": 115,
    "empName": "Knox Porter",
    "username": "knoxp567",
    "email": "knoxp@example.com",
    "age": 33,
    "phone": "555-6789",
    "gender": "Male",
    "salary": 87046
  },
  {
    "empId": 116,
    "empName": "Ivy Porter",
    "username": "ivyp890",
    "email": "ivyp@example.com",
    "age": 29,
    "phone": "555-8901",
    "gender": "Female",
    "salary": 98849
  },
  {
    "empId": 117,
    "empName": "Ryker Stevenson",
    "username": "rykers234",
    "email": "rykers@example.com",
    "age": 31,
    "phone": "555-2345",
    "gender": "Male",
    "salary": 38983
  },
  {
    "empId": 118,
    "empName": "Ruby Stevenson",
    "username": "rubys567",
    "email": "rubys@example.com",
    "age": 27,
    "phone": "555-6789",
    "gender": "Female",
    "salary": 32420
  },
  {
    "empId": 119,
    "empName": "Rowan Hudson",
    "username": "rowanh890",
    "email": "rowanh@example.com",
    "age": 34,
    "phone": "555-8901",
    "gender": "Male",
    "salary": 48702
  },
  {
    "empId": 120,
    "empName": "Norah Hudson",
    "username": "norah234",
    "email": "norah@example.com",
    "age": 26,
    "phone": "555-2345",
    "gender": "Female",
    "salary": 14146
  },
  {
    "empId": 121,
    "empName": "Sawyer Phillips",
    "username": "sawyerp567",
    "email": "sawyerp@example.com",
    "age": 33,
    "phone": "555-6789",
    "gender": "Male",
    "salary": 88773
  },
  {
    "empId": 122,
    "empName": "Josephine Phillips",
    "username": "josephinep890",
    "email": "josephinep@example.com",
    "age": 29,
    "phone": "555-8901",
    "gender": "Female",
    "salary": 75760
  }
]